<?xml version="1.0" encoding="UTF-8"?>
<svg width="50px" height="42px" viewBox="0 0 50 42" version="1.1" xmlns="http://www.w3.org/2000/svg" xmlns:xlink="http://www.w3.org/1999/xlink">
    <!-- Generator: Sketch 60.1 (88133) - https://sketch.com -->
    <title>Checkmark</title>
    <desc>Created with Sketch.</desc>
    <defs>
        <path d="M12.5276926,18.5276926 L21,27 L21,27 L38.2226076,4.33867426 C39.2102353,3.0391641 41.0555758,2.76769146 42.3756092,3.72771581 L48.5171564,8.19429555 C49.8571142,9.16881033 50.1533643,11.0450611 49.1788495,12.3850189 C49.1652786,12.4036789 49.1514928,12.4221818 49.137495,12.4405238 L26.3488254,42.3015391 C24.3384869,44.9357758 20.5733147,45.4415452 17.939078,43.4312067 C17.6575134,43.2163284 17.3955287,42.9769404 17.1561931,42.715847 L1.73658561,25.894457 C0.737151868,24.8041657 0.681483405,23.1481457 1.6054416,21.993198 L4,19 C5.97727394,16.5284076 9.58379271,16.1276833 12.0553851,18.1049572 C12.2204988,18.2370482 12.3781758,18.3781758 12.5276926,18.5276926 Z" id="path-1"></path>
    </defs>
    <g id="Symbols" stroke="none" stroke-width="1" fill="none" fill-rule="evenodd">
        <g id="icon/checkmark" transform="translate(0.000000, -3.000000)">
            <mask id="mask-2" fill="white">
                <use xlink:href="#path-1"></use>
            </mask>
            <use id="Checkmark" fill="#FFFFFF" xlink:href="#path-1"></use>
        </g>
    </g>
</svg>
